{
    "montserrat": {
        "italic": "C:\\xampp2\\htdocs\\general-ledger\\storage\\fonts\/montserrat_italic_9a283117545b9246f20d56faf2071ead",
        "500_italic": "C:\\xampp2\\htdocs\\general-ledger\\storage\\fonts\/montserrat_500_italic_a8d93c9bcd6408024258001b80e0033a",
        "600_italic": "C:\\xampp2\\htdocs\\general-ledger\\storage\\fonts\/montserrat_600_italic_0cee389f6c978f7f2708882291d2fee9",
        "300": "C:\\xampp2\\htdocs\\general-ledger\\storage\\fonts\/montserrat_300_39b1972e72c43f1f0e368a33cc82c0ce",
        "normal": "C:\\xampp2\\htdocs\\general-ledger\\storage\\fonts\/montserrat_normal_b74b751c20b429298921949795391ef1",
        "500": "C:\\xampp2\\htdocs\\general-ledger\\storage\\fonts\/montserrat_500_a34ab50d0b60a015b62e11133b0bf05b",
        "600": "montserrat_600_54346339d706ca965bcbed499d2795db"
    },
    "font awesome 5 brands": {
        "normal": "font_awesome_5_brands_normal_0965306254e651c4fc55a573f095a20a"
    },
    "font awesome 5 free": {
        "normal": "C:\\xampp2\\htdocs\\general-ledger\\storage\\fonts\/font_awesome_5_free_normal_f3fd30edb4a6b2df49848fb51b64e128",
        "900": "font_awesome_5_free_900_106f6c410012f6514e2db52695864c8b"
    }
}